{
  "extensionDescription": {
    "message": "Lhe protege de rastreamento feito usando centrais de disponibilização de conteúdo \"gratuitas\".",
    "description": "Extension description."
  },
  "disableProtectionTitle": {
    "message": "Desabilitar a proteção neste site",
    "description": "Disable protection title."
  },
  "enableProtectionTitle": {
    "message": "Habilitar proteção",
    "description": "Enable protection title."
  },
  "amountInjectedTitle": {
    "message": "Contador de recursos injetados localmente",
    "description": "Amount injected title."
  },
  "amountInjectedDescription": {
    "message": "Total de injeções locais de recursos de Redes de Distribuição de Conteúdo desde a instalação.",
    "description": "Amount injected description."
  },
  "optionsTitle": {
    "message": "Opções",
    "description": "Options title."
  },
  "showIconBadgeTitle": {
    "message": "Exibir total de injeções no ícone",
    "description": "Show icon badge title."
  },
  "showIconBadgeDescription": {
    "message": "Mostra o total de injeções de recursos no ícone do complemento.",
    "description": "Show icon badge description."
  },
  "blockMissingTitle": {
    "message": "Bloquear requisições a recursos faltosos",
    "description": "Block requests for missing resources title."
  },
  "blockMissingDescription": {
    "message": "Cancela requisições interceptadas se o recurso necessário não está disponível localmente.",
    "description": "Block requests for missing resources description."
  },
  "disablePrefetchTitle": {
    "message": "Desabilitar pré-carregamento de links",
    "description": "Disable prefetch title."
  },
  "disablePrefetchDescription": {
    "message": "Impede que requisições não permitidas vazem para as redes de distribuição de conteúdo.",
    "description": "Disable prefetch description."
  },
  "stripMetadataTitle": {
    "message": "Remover metadados de requisições permitidas",
    "description": "Strip metadata title."
  },
  "stripMetadataDescription": {
    "message": "Apaga dados sensíveis de requisições à CDNs permitidas visando melhorar a privacidade.",
    "description": "Strip metadata description."
  },
  "whitelistedDomainsTitle": {
    "message": "Remover domínios das inspeções",
    "description": "Whitelisted domains title."
  },
  "whitelistedDomainsDescription": {
    "message": "Digite os domínios que não devem ser analisados. Separe múltiplos domínios com ponto e vírgula (;).",
    "description": "Whitelisted domains description."
  },
  "advancedLabel": {
    "message": "Avançado",
    "description": "Advanced label."
  },
  "generateRuleSetTitle": {
    "message": "Gere conjuntos de regras para uBlock ou uMatrix",
    "description": "Generate rule set title."
  },
  "generateRuleSetDescription": {
    "message": "",
    "description": "In case you're using uBlock or uMatrix you can generate the rules here. You have to add these rules manually in uBlock or uMatrix."
  },
  "lastUpdate": {
      "message": "",
      "description": "Last update."
  },
  "copyRuleSet": {
    "message": "",
    "description": "Text of button to copy ruleset."
  },
  "loggingTitle": {
    "message": "",
    "description": "Enable logging in browser console."
  },
  "loggingDescription": {
    "message": "",
    "description": "Open \"Browser Console\" ( CTRL + SHIFT + J ) to show missing resources."
  },
  "hideReleaseNotesTitle": {
    "message": "",
    "description": "Disable release notes"
  },
  "hideReleaseNotesDescription": {
    "message": "",
    "description": "If enabled, you wont receive any information about new features in LocalCDN. This includes information about new uBlock/uMatrix rules."
  },
  "featureBreaksWebsitesDescription": {
    "message": "",
    "description": "This feature breaks websites. Do not leave it enabled, unless you are prepared to manually whitelist any affected domains."
  },
  "featureBreaksWebsitesButton": {
    "message": "",
    "description": "Disable"
  },
  "labelManipulateDOM": {
    "message": "",
    "description": "Tweak HTML source code"
  }
}
