{
  "extensionDescription": {
    "message": "Protejează împotriva urmăririi prin livrare de conținut gratuit, centralizat.",
    "description": "Extension description."
  },
  "disableProtectionTitle": {
    "message": "Dezactivează protecția pentru acest site",
    "description": "Disable protection title."
  },
  "enableProtectionTitle": {
    "message": "Activează protecția",
    "description": "Enable protection title."
  },
  "amountInjectedTitle": {
    "message": "Contor pentru resursele injectate local",
    "description": "Amount injected title."
  },
  "amountInjectedDescription": {
    "message": "Cantitatea de resurse locale injectate de Rețelele care Livrează Conținut din momentul instalării.",
    "description": "Amount injected description."
  },
  "optionsTitle": {
    "message": "Opțiuni",
    "description": "Options title."
  },
  "showIconBadgeTitle": {
    "message": "Afișează numărul de dependențe înlocuite pe iconiță",
    "description": "Show icon badge title."
  },
  "showIconBadgeDescription": {
    "message": "Afișează numărul de resurse înlocuite pe iconița extensiei.",
    "description": "Show icon badge description."
  },
  "blockMissingTitle": {
    "message": "Blochează cererile pentru resursele care lipsesc",
    "description": "Block requests for missing resources title."
  },
  "blockMissingDescription": {
    "message": "Anulează cererile interceptate dacă resursa solicitată nu este disponibilă local.",
    "description": "Block requests for missing resources description."
  },
  "disablePrefetchTitle": {
    "message": "Dezactivează pre-încărcarea de linkuri",
    "description": "Disable prefetch title."
  },
  "disablePrefetchDescription": {
    "message": "Previne scurgerea request-uri nepermise către rețele de livrare.",
    "description": "Disable prefetch description."
  },
  "stripMetadataTitle": {
    "message": "Scoate metadatele din requesturi permise",
    "description": "Strip metadata title."
  },
  "stripMetadataDescription": {
    "message": "Șterge date sensibile din requesturi permise pentru îmbunătățirea confidențialității.",
    "description": "Strip metadata description."
  },
  "whitelistedDomainsTitle": {
    "message": "Exclude domeniile următoare de la inspecții",
    "description": "Whitelisted domains title."
  },
  "whitelistedDomainsDescription": {
    "message": "Introduceți domeniile dorite în lista albă. Separați intrările multiple între ele prin punct și virgulă (;).",
    "description": "Whitelisted domains description."
  },
  "advancedLabel": {
    "message": "Avansat",
    "description": "Advanced label."
  },
  "generateRuleSetTitle": {
    "message": "Generați seturi de reguli pentru uBlock sau uMatrix",
    "description": "Generate rule set title."
  },
  "generateRuleSetDescription": {
    "message": "",
    "description": "In case you're using uBlock or uMatrix you can generate the rules here. You have to add these rules manually in uBlock or uMatrix."
  },
  "lastUpdate": {
      "message": "",
      "description": "Last update."
  },
  "copyRuleSet": {
    "message": "",
    "description": "Text of button to copy ruleset."
  },
  "loggingTitle": {
    "message": "",
    "description": "Enable logging in browser console."
  },
  "loggingDescription": {
    "message": "",
    "description": "Open \"Browser Console\" ( CTRL + SHIFT + J ) to show missing resources."
  },
  "hideReleaseNotesTitle": {
    "message": "",
    "description": "Disable release notes"
  },
  "hideReleaseNotesDescription": {
    "message": "",
    "description": "If enabled, you wont receive any information about new features in LocalCDN. This includes information about new uBlock/uMatrix rules."
  },
  "featureBreaksWebsitesDescription": {
    "message": "",
    "description": "This feature breaks websites. Do not leave it enabled, unless you are prepared to manually whitelist any affected domains."
  },
  "featureBreaksWebsitesButton": {
    "message": "",
    "description": "Disable"
  },
  "labelManipulateDOM": {
    "message": "",
    "description": "Tweak HTML source code"
  }
}
