{
  "extensionDescription": {
    "message": "Protects you against tracking through \"free\", centralized, content delivery.",
    "description": "Extension description."
  },
  "disableProtectionTitle": {
    "message": "Disable protection for this site",
    "description": "Disable protection title."
  },
  "enableProtectionTitle": {
    "message": "Enable protection",
    "description": "Enable protection title."
  },
  "amountInjectedTitle": {
    "message": "Counter for locally injected resources",
    "description": "Amount injected title."
  },
  "amountInjectedDescription": {
    "message": "Amount of local Content Delivery Network resource injections since installation.",
    "description": "Amount injected description."
  },
  "optionsTitle": {
    "message": "Options",
    "description": "Options title."
  },
  "showIconBadgeTitle": {
    "message": "Display injection counts on icon",
    "description": "Show icon badge title."
  },
  "showIconBadgeDescription": {
    "message": "Show the number of injected resources on the extension icon.",
    "description": "Show icon badge description."
  },
  "blockMissingTitle": {
    "message": "Block requests for missing resources",
    "description": "Block requests for missing resources title."
  },
  "blockMissingDescription": {
    "message": "Cancel intercepted request if the required resource is not locally available.",
    "description": "Block requests for missing resources description."
  },
  "disablePrefetchTitle": {
    "message": "Disable link prefetching",
    "description": "Disable prefetch title."
  },
  "disablePrefetchDescription": {
    "message": "Prevent disallowed requests from leaking out to delivery networks.",
    "description": "Disable prefetch description."
  },
  "stripMetadataTitle": {
    "message": "Strip metadata from allowed requests",
    "description": "Strip metadata title."
  },
  "stripMetadataDescription": {
    "message": "Erase sensitive data from allowed CDN requests for improved privacy.",
    "description": "Strip metadata description."
  },
  "whitelistedDomainsTitle": {
    "message": "Exclude domains from inspections",
    "description": "Whitelisted domains title."
  },
  "whitelistedDomainsDescription": {
    "message": "Enter domains to whitelist them. Separate multiple entries with semi-colons (;).",
    "description": "Whitelisted domains description."
  },
  "advancedLabel": {
    "message": "Advanced",
    "description": "Advanced label."
  },
  "generateRuleSetTitle": {
    "message": "Generate rule sets for uBlock or uMatrix",
    "description": "Generate rule set title."
  },
  "generateRuleSetDescription": {
    "message": "In case you're using uBlock or uMatrix you can generate the rules here. You have to add these rules manually in uBlock or uMatrix.",
    "description": "In case you're using uBlock or uMatrix you can generate the rules here. You have to add these rules manually in uBlock or uMatrix."
  },
  "lastUpdate": {
      "message": "Last update: ",
      "description": "Last update."
  },
  "copyRuleSet": {
    "message": "Copy",
    "description": "Text of button to copy ruleset."
  },
  "loggingTitle": {
    "message": "Enable logging in browser console",
    "description": "Enable logging in browser console."
  },
  "loggingDescription": {
    "message": "Open \"Browser Console\" ( CTRL + SHIFT + J ) to show missing resources",
    "description": "Open \"Browser Console\" ( CTRL + SHIFT + J ) to show missing resources."
  },
  "hideReleaseNotesTitle": {
    "message": "Disable release notes",
    "description": "Disable release notes"
  },
  "hideReleaseNotesDescription": {
    "message": "If enabled, you wont receive any information about new features in LocalCDN. This includes information about new uBlock/uMatrix rules.",
    "description": "If enabled, you wont receive any information about new features in LocalCDN. This includes information about new uBlock/uMatrix rules."
  },
  "featureBreaksWebsitesDescription": {
    "message": "This feature breaks websites. Do not leave it enabled, unless you are prepared to manually whitelist any affected domains.",
    "description": "This feature breaks websites. Do not leave it enabled, unless you are prepared to manually whitelist any affected domains."
  },
  "featureBreaksWebsitesButton": {
    "message": "Disable",
    "description": "Disable"
  },
  "labelManipulateDOM": {
    "message": "Tweak HTML source code",
    "description": "Tweak HTML source code"
  }
}
