{
  "extensionDescription": {
    "message": "Protegge dal tracciamento tramite CDN centralizzati \"liberi\".",
    "description": "Extension description."
  },
  "disableProtectionTitle": {
    "message": "Disattiva protezione per questo sito",
    "description": "Disable protection title."
  },
  "enableProtectionTitle": {
    "message": "Attiva protezione",
    "description": "Enable protection title."
  },
  "amountInjectedTitle": {
    "message": "Contatore per risorse iniettate localmente",
    "description": "Amount injected title."
  },
  "amountInjectedDescription": {
    "message": "Quantità di iniezioni di risorse dalla CDN locale sin dall'installazione.",
    "description": "Amount injected description."
  },
  "optionsTitle": {
    "message": "Opzioni",
    "description": "Options title."
  },
  "showIconBadgeTitle": {
    "message": "Mostra il numero di iniezioni sull'icona",
    "description": "Show icon badge title."
  },
  "showIconBadgeDescription": {
    "message": "Mostra il numero di risorse iniettate sull'icona dell'estensione.",
    "description": "Show icon badge description."
  },
  "blockMissingTitle": {
    "message": "Blocca le richieste di risorse mancanti",
    "description": "Block requests for missing resources title."
  },
  "blockMissingDescription": {
    "message": "Annulla la richiesta intercettata se la risorsa necessaria non è disponibile localmente.",
    "description": "Block requests for missing resources description."
  },
  "disablePrefetchTitle": {
    "message": "Disabilita il precaricamento dei collegamenti",
    "description": "Disable prefetch title."
  },
  "disablePrefetchDescription": {
    "message": "Impedisci alle richieste non consentite di uscire dalle reti di distribuzione.",
    "description": "Disable prefetch description."
  },
  "stripMetadataTitle": {
    "message": "Togli i metadati dalle richieste consentite",
    "description": "Strip metadata title."
  },
  "stripMetadataDescription": {
    "message": "Cancella i dati sensibili dalle richieste consentite alle CDN per migliorare la privacy.",
    "description": "Strip metadata description."
  },
  "whitelistedDomainsTitle": {
    "message": "Escludi i domini dalle ispezioni",
    "description": "Whitelisted domains title."
  },
  "whitelistedDomainsDescription": {
    "message": "Inserisci i domini nella whitelist per escluderli. Separa le voci multiple con punti e virgola (;).",
    "description": "Whitelisted domains description."
  },
  "advancedLabel": {
    "message": "Avanzate",
    "description": "Advanced label."
  },
  "generateRuleSetTitle": {
    "message": "Genera gruppo di regole per uBlock o uMatrix",
    "description": "Generate rule set title."
  },
  "generateRuleSetDescription": {
    "message": "Nel caso stessi utilizzando uBlock o uMatrix è possibile generare le regole qui. È necessario aggiungere queste regole manualmente in uBlock o uMatrix.",
    "description": "In case you're using uBlock or uMatrix you can generate the rules here. You have to add these rules manually in uBlock or uMatrix."
  },
  "lastUpdate": {
      "message": "Ultimo aggiornamento:",
      "description": "Last update."
  },
  "copyRuleSet": {
    "message": "Copia",
    "description": "Text of button to copy ruleset."
  },
  "loggingTitle": {
    "message": "Abilita l'accesso alla console del browser",
    "description": "Enable logging in browser console."
  },
  "loggingDescription": {
    "message": "Apri la Console del Browser ( CTRL + SHIFT + J ) per mostrare le risorse mancanti",
    "description": "Open \"Browser Console\" ( CTRL + SHIFT + J ) to show missing resources."
  },
  "hideReleaseNotesTitle": {
    "message": "Disabilita le note di rilascio",
    "description": "Disable release notes"
  },
  "hideReleaseNotesDescription": {
    "message": "Se abilitato, non riceverai alcuna informazione sulle nuove funzionalità di LocalCDN. Questo include informazioni sulle nuove regole per uBlock/uMatrix.",
    "description": "If enabled, you wont receive any information about new features in LocalCDN. This includes information about new uBlock/uMatrix rules."
  },
  "featureBreaksWebsitesDescription": {
    "message": "Questa funzione rompe i siti web. Non lasciarla abilitata, a meno che tu non sia pronto a mettere manualmente nella whitelist i domini interessati.",
    "description": "This feature breaks websites. Do not leave it enabled, unless you are prepared to manually whitelist any affected domains."
  },
  "featureBreaksWebsitesButton": {
    "message": "Disabilita",
    "description": "Disable"
  },
  "labelManipulateDOM": {
    "message": "",
    "description": "Tweak HTML source code"
  }
}
