{
  "extensionDescription": {
    "message": "Kaitseb sind \"tasuta\", tsentraliseeritud sisu edastamisest tuleneva jälitamise vastu.",
    "description": "Extension description."
  },
  "disableProtectionTitle": {
    "message": "Keela kaitse sellel saidil",
    "description": "Disable protection title."
  },
  "enableProtectionTitle": {
    "message": "Luba kaitse",
    "description": "Enable protection title."
  },
  "amountInjectedTitle": {
    "message": "Kohalikult sisestatud ressursside loendur",
    "description": "Amount injected title."
  },
  "amountInjectedDescription": {
    "message": "Kohalike sisuedastusvõrkude ressursisisestuste arv alates installimisest.",
    "description": "Amount injected description."
  },
  "optionsTitle": {
    "message": "Valikud",
    "description": "Options title."
  },
  "showIconBadgeTitle": {
    "message": "Kuva sisestuste arvu ikoonil",
    "description": "Show icon badge title."
  },
  "showIconBadgeDescription": {
    "message": "Kuva sisestatud ressursside arvu laienduse ikoonil.",
    "description": "Show icon badge description."
  },
  "blockMissingTitle": {
    "message": "Blokeeri puuduvate ressursside taotlused",
    "description": "Block requests for missing resources title."
  },
  "blockMissingDescription": {
    "message": "Tühista kinnipüütud taotlus, kui vajaminev ressurss ei ole kohalikult saadaval.",
    "description": "Block requests for missing resources description."
  },
  "disablePrefetchTitle": {
    "message": "Keela lingi eellaadimine",
    "description": "Disable prefetch title."
  },
  "disablePrefetchDescription": {
    "message": "Väldi keelatud taotluste väljalekkimist edastusvõrkudele.",
    "description": "Disable prefetch description."
  },
  "stripMetadataTitle": {
    "message": "Eemalda lubatud taotlustelt metaandmed",
    "description": "Strip metadata title."
  },
  "stripMetadataDescription": {
    "message": "Kustuta tundlikud andmed lubatud sisuedastusvõrkude taotlustest parema privaatsuse saamiseks.",
    "description": "Strip metadata description."
  },
  "whitelistedDomainsTitle": {
    "message": "Välista uuritavaid domeene",
    "description": "Whitelisted domains title."
  },
  "whitelistedDomainsDescription": {
    "message": "Sisesta domeenid, et lisada need valgesse nimekirja. Eralda mitu üksust semikoolonitega (;).",
    "description": "Whitelisted domains description."
  },
  "advancedLabel": {
    "message": "Edasijõudnuile",
    "description": "Advanced label."
  },
  "generateRuleSetTitle": {
    "message": "Genereerige reeglite komplektid uBlockile või uMatrixile",
    "description": "Generate rule set title."
  },
  "generateRuleSetDescription": {
    "message": "",
    "description": "In case you're using uBlock or uMatrix you can generate the rules here. You have to add these rules manually in uBlock or uMatrix."
  },
  "lastUpdate": {
      "message": "",
      "description": "Last update."
  },
  "copyRuleSet": {
    "message": "",
    "description": "Text of button to copy ruleset."
  },
  "loggingTitle": {
    "message": "",
    "description": "Enable logging in browser console."
  },
  "loggingDescription": {
    "message": "",
    "description": "Open \"Browser Console\" ( CTRL + SHIFT + J ) to show missing resources."
  },
  "hideReleaseNotesTitle": {
    "message": "",
    "description": "Disable release notes"
  },
  "hideReleaseNotesDescription": {
    "message": "",
    "description": "If enabled, you wont receive any information about new features in LocalCDN. This includes information about new uBlock/uMatrix rules."
  },
  "featureBreaksWebsitesDescription": {
    "message": "",
    "description": "This feature breaks websites. Do not leave it enabled, unless you are prepared to manually whitelist any affected domains."
  },
  "featureBreaksWebsitesButton": {
    "message": "",
    "description": "Disable"
  },
  "labelManipulateDOM": {
    "message": "",
    "description": "Tweak HTML source code"
  }
}
